sim/ripple-carry-adder.vcd
$date
	Sat Jun 17 13:57:52 2023
$end
$version
	ModelSim Version 10.5b
$end
$timescale
	1ps
$end

$scope module ripple_carry_adder_tb $end
$var reg 4 ! in0 [3:0] $end
$var reg 4 " in1 [3:0] $end
$var wire 1 # out [3] $end
$var wire 1 $ out [2] $end
$var wire 1 % out [1] $end
$var wire 1 & out [0] $end
$var wire 1 ' cout $end
$var integer 32 ( i $end

$scope module rca $end
$var wire 1 ) in0 [3] $end
$var wire 1 * in0 [2] $end
$var wire 1 + in0 [1] $end
$var wire 1 , in0 [0] $end
$var wire 1 - in1 [3] $end
$var wire 1 . in1 [2] $end
$var wire 1 / in1 [1] $end
$var wire 1 0 in1 [0] $end
$var wire 1 # out [3] $end
$var wire 1 $ out [2] $end
$var wire 1 % out [1] $end
$var wire 1 & out [0] $end
$var wire 1 ' cout $end
$var wire 1 1 c1 $end
$var wire 1 2 c2 $end
$var wire 1 3 c3 $end

$scope module fa0 $end
$var wire 1 , a $end
$var wire 1 0 b $end
$var wire 1 4 c $end
$var wire 1 & sum $end
$var wire 1 1 carry $end
$var wire 1 5 w1 $end
$var wire 1 6 w2 $end
$var wire 1 7 w3 $end

$scope module HA1 $end
$var wire 1 , a $end
$var wire 1 0 b $end
$var wire 1 5 sum $end
$var wire 1 6 carry $end
$upscope $end

$scope module HA2 $end
$var wire 1 5 a $end
$var wire 1 4 b $end
$var wire 1 & sum $end
$var wire 1 7 carry $end
$upscope $end
$upscope $end

$scope module fa1 $end
$var wire 1 + a $end
$var wire 1 / b $end
$var wire 1 1 c $end
$var wire 1 % sum $end
$var wire 1 2 carry $end
$var wire 1 8 w1 $end
$var wire 1 9 w2 $end
$var wire 1 : w3 $end

$scope module HA1 $end
$var wire 1 + a $end
$var wire 1 / b $end
$var wire 1 8 sum $end
$var wire 1 9 carry $end
$upscope $end

$scope module HA2 $end
$var wire 1 8 a $end
$var wire 1 1 b $end
$var wire 1 % sum $end
$var wire 1 : carry $end
$upscope $end
$upscope $end

$scope module fa2 $end
$var wire 1 * a $end
$var wire 1 . b $end
$var wire 1 2 c $end
$var wire 1 $ sum $end
$var wire 1 3 carry $end
$var wire 1 ; w1 $end
$var wire 1 < w2 $end
$var wire 1 = w3 $end

$scope module HA1 $end
$var wire 1 * a $end
$var wire 1 . b $end
$var wire 1 ; sum $end
$var wire 1 < carry $end
$upscope $end

$scope module HA2 $end
$var wire 1 ; a $end
$var wire 1 2 b $end
$var wire 1 $ sum $end
$var wire 1 = carry $end
$upscope $end
$upscope $end

$scope module fa3 $end
$var wire 1 ) a $end
$var wire 1 - b $end
$var wire 1 3 c $end
$var wire 1 # sum $end
$var wire 1 ' carry $end
$var wire 1 > w1 $end
$var wire 1 ? w2 $end
$var wire 1 @ w3 $end

$scope module HA1 $end
$var wire 1 ) a $end
$var wire 1 - b $end
$var wire 1 > sum $end
$var wire 1 ? carry $end
$upscope $end

$scope module HA2 $end
$var wire 1 > a $end
$var wire 1 3 b $end
$var wire 1 # sum $end
$var wire 1 @ carry $end
$upscope $end
$upscope $end
$upscope $end
$upscope $end
$enddefinitions $end
#0
$dumpvars
b0 !
b0 "
b0 (
0&
0%
0$
0#
0'
01
02
03
05
06
07
08
09
0:
0;
0<
0=
0>
0?
0@
00
0/
0.
0-
0,
0+
0*
0)
04
$end
#10
b1 (
b1 "
10
15
1&
#20
b10 (
b10 "
00
1/
18
05
0&
1%
#30
b11 (
b11 "
10
15
1&
#40
b100 (
b100 "
00
0/
1.
1;
08
05
0&
0%
1$
#50
b101 (
b101 "
10
15
1&
#60
b110 (
b110 "
00
1/
18
05
0&
1%
#70
b111 (
b111 "
10
15
1&
#80
b1000 (
b1000 "
00
0/
0.
1-
1>
0;
08
05
0&
0%
0$
1#
#90
b1001 (
b1001 "
10
15
1&
#100
b1010 (
b1010 "
00
1/
18
05
0&
1%
#110
b1011 (
b1011 "
10
15
1&
#120
b1100 (
b1100 "
00
0/
1.
1;
08
05
0&
0%
1$
#130
b1101 (
b1101 "
10
15
1&
#140
b1110 (
b1110 "
00
1/
18
05
0&
1%
#150
b1111 (
b1111 "
10
15
1&
#160
b10000 (
b0 "
b1 !
1,
00
0/
0.
0-
0>
0;
08
0%
0$
0#
#170
b10001 (
b1 "
10
05
16
0&
11
1%
#180
b10010 (
b10 "
00
1/
18
15
06
1&
0%
1:
01
12
1$
1%
0:
02
0$
#190
b10011 (
b11 "
10
05
16
0&
11
0%
1:
12
1$
#200
b10100 (
b100 "
00
0/
1.
1;
08
15
06
1&
1%
0:
0$
1=
01
02
13
1#
1$
0=
0%
03
0#
#210
b10101 (
b101 "
10
05
16
0&
11
1%
#220
b10110 (
b110 "
00
1/
18
15
06
1&
0%
1:
01
12
0$
1=
1%
0:
13
02
1$
0=
1#
03
0#
#230
b10111 (
b111 "
10
05
16
0&
11
0%
1:
12
0$
1=
13
1#
#240
b11000 (
b1000 "
00
0/
0.
1-
1>
0;
08
15
06
1&
1%
0:
1$
0=
0#
1@
01
02
03
1'
1#
0@
0$
0%
0'
#250
b11001 (
b1001 "
10
05
16
0&
11
1%
#260
b11010 (
b1010 "
00
1/
18
15
06
1&
0%
1:
01
12
1$
1%
0:
02
0$
#270
b11011 (
b1011 "
10
05
16
0&
11
0%
1:
12
1$
#280
b11100 (
b1100 "
00
0/
1.
1;
08
15
06
1&
1%
0:
0$
1=
01
02
13
0#
1@
1$
0=
0%
1'
03
1#
0@
0'
#290
b11101 (
b1101 "
10
05
16
0&
11
1%
#300
b11110 (
b1110 "
00
1/
18
15
06
1&
0%
1:
01
12
0$
1=
1%
0:
13
02
1$
0=
0#
1@
03
1'
1#
0@
0'
#310
b11111 (
b1111 "
10
05
16
0&
11
0%
1:
12
0$
1=
13
0#
1@
1'
#320
b100000 (
b0 "
b10 !
0,
1+
00
0/
0.
0-
0>
0;
06
1$
0=
1#
0@
01
03
0'
0#
1%
0:
02
0$
#330
b100001 (
b1 "
10
15
1&
#340
b100010 (
b10 "
00
1/
08
19
05
0&
0%
12
1$
#350
b100011 (
b11 "
10
15
1&
#360
b100100 (
b100 "
00
0/
1.
1;
18
09
05
0&
1%
0$
1=
02
13
1#
1$
0=
03
0#
#370
b100101 (
b101 "
10
15
1&
#380
b100110 (
b110 "
00
1/
08
19
05
0&
0%
12
0$
1=
13
1#
#390
b100111 (
b111 "
10
15
1&
#400
b101000 (
b1000 "
00
0/
0.
1-
1>
0;
18
09
05
0&
1%
1$
0=
0#
1@
02
03
1'
1#
0@
0$
0'
#410
b101001 (
b1001 "
10
15
1&
#420
b101010 (
b1010 "
00
1/
08
19
05
0&
0%
12
1$
#430
b101011 (
b1011 "
10
15
1&
#440
b101100 (
b1100 "
00
0/
1.
1;
18
09
05
0&
1%
0$
1=
02
13
0#
1@
1$
0=
1'
03
1#
0@
0'
#450
b101101 (
b1101 "
10
15
1&
#460
b101110 (
b1110 "
00
1/
08
19
05
0&
0%
12
0$
1=
13
0#
1@
1'
#470
b101111 (
b1111 "
10
15
1&
#480
b110000 (
b0 "
b11 !
1,
00
0/
0.
0-
0>
0;
18
09
1%
1$
0=
1#
0@
02
03
0'
0#
0$
#490
b110001 (
b1 "
10
05
16
0&
11
0%
1:
12
1$
#500
b110010 (
b10 "
00
1/
08
19
15
06
1&
1%
0:
01
0%
#510
b110011 (
b11 "
10
05
16
0&
11
1%
#520
b110100 (
b100 "
00
0/
1.
1;
18
09
15
06
1&
0%
1:
0$
1=
01
13
1#
1%
0:
02
1$
0=
03
0#
#530
b110101 (
b101 "
10
05
16
0&
11
0%
1:
12
0$
1=
13
1#
#540
b110110 (
b110 "
00
1/
08
19
15
06
1&
1%
0:
01
0%
#550
b110111 (
b111 "
10
05
16
0&
11
1%
#560
b111000 (
b1000 "
00
0/
0.
1-
1>
0;
18
09
15
06
1&
0%
1:
1$
0=
0#
1@
01
03
1'
1#
0@
1%
0:
0'
02
0$
#570
b111001 (
b1001 "
10
05
16
0&
11
0%
1:
12
1$
#580
b111010 (
b1010 "
00
1/
08
19
15
06
1&
1%
0:
01
0%
#590
b111011 (
b1011 "
10
05
16
0&
11
1%
#600
b111100 (
b1100 "
00
0/
1.
1;
18
09
15
06
1&
0%
1:
0$
1=
01
13
0#
1@
1%
0:
1'
02
1$
0=
03
1#
0@
0'
#610
b111101 (
b1101 "
10
05
16
0&
11
0%
1:
12
0$
1=
13
0#
1@
1'
#620
b111110 (
b1110 "
00
1/
08
19
15
06
1&
1%
0:
01
0%
#630
b111111 (
b1111 "
10
05
16
0&
11
1%
#640
b1000000 (
b0 "
b100 !
0,
0+
1*
00
0/
0.
0-
0>
09
06
1#
0@
02
01
0'
0%
1$
0=
03
0#
#650
b1000001 (
b1 "
10
15
1&
#660
b1000010 (
b10 "
00
1/
18
05
0&
1%
#670
b1000011 (
b11 "
10
15
1&
#680
b1000100 (
b100 "
00
0/
1.
0;
1<
08
05
0&
0%
0$
13
1#
#690
b1000101 (
b101 "
10
15
1&
#700
b1000110 (
b110 "
00
1/
18
05
0&
1%
#710
b1000111 (
b111 "
10
15
1&
#720
b1001000 (
b1000 "
00
0/
0.
1-
1>
1;
0<
08
05
0&
0%
1$
0#
1@
03
1'
1#
0@
0'
#730
b1001001 (
b1001 "
10
15
1&
#740
b1001010 (
b1010 "
00
1/
18
05
0&
1%
#750
b1001011 (
b1011 "
10
15
1&
#760
b1001100 (
b1100 "
00
0/
1.
0;
1<
08
05
0&
0%
0$
13
0#
1@
1'
#770
b1001101 (
b1101 "
10
15
1&
#780
b1001110 (
b1110 "
00
1/
18
05
0&
1%
#790
b1001111 (
b1111 "
10
15
1&
#800
b1010000 (
b0 "
b101 !
1,
00
0/
0.
0-
0>
1;
0<
08
0%
1$
1#
0@
03
0'
0#
#810
b1010001 (
b1 "
10
05
16
0&
11
1%
#820
b1010010 (
b10 "
00
1/
18
15
06
1&
0%
1:
01
12
0$
1=
1%
0:
13
02
1$
0=
1#
03
0#
#830
b1010011 (
b11 "
10
05
16
0&
11
0%
1:
12
0$
1=
13
1#
#840
b1010100 (
b100 "
00
0/
1.
0;
1<
08
15
06
1&
1%
0:
1$
0=
01
02
0$
0%
#850
b1010101 (
b101 "
10
05
16
0&
11
1%
#860
b1010110 (
b110 "
00
1/
18
15
06
1&
0%
1:
01
12
1$
1%
0:
02
0$
#870
b1010111 (
b111 "
10
05
16
0&
11
0%
1:
12
1$
#880
b1011000 (
b1000 "
00
0/
0.
1-
1>
1;
0<
08
15
06
1&
1%
0:
0$
1=
0#
1@
01
02
1'
1$
0=
0%
03
1#
0@
0'
#890
b1011001 (
b1001 "
10
05
16
0&
11
1%
#900
b1011010 (
b1010 "
00
1/
18
15
06
1&
0%
1:
01
12
0$
1=
1%
0:
13
02
1$
0=
0#
1@
03
1'
1#
0@
0'
#910
b1011011 (
b1011 "
10
05
16
0&
11
0%
1:
12
0$
1=
13
0#
1@
1'
#920
b1011100 (
b1100 "
00
0/
1.
0;
1<
08
15
06
1&
1%
0:
1$
0=
01
02
0$
0%
#930
b1011101 (
b1101 "
10
05
16
0&
11
1%
#940
b1011110 (
b1110 "
00
1/
18
15
06
1&
0%
1:
01
12
1$
1%
0:
02
0$
#950
b1011111 (
b1111 "
10
05
16
0&
11
0%
1:
12
1$
#960
b1100000 (
b0 "
b110 !
0,
1+
00
0/
0.
0-
0>
1;
0<
06
0$
1=
1#
0@
01
0'
1%
0:
02
1$
0=
03
0#
#970
b1100001 (
b1 "
10
15
1&
#980
b1100010 (
b10 "
00
1/
08
19
05
0&
0%
12
0$
1=
13
1#
#990
b1100011 (
b11 "
10
15
1&
#1000
b1100100 (
b100 "
00
0/
1.
0;
1<
18
09
05
0&
1%
1$
0=
02
0$
#1010
b1100101 (
b101 "
10
15
1&
#1020
b1100110 (
b110 "
00
1/
08
19
05
0&
0%
12
1$
#1030
b1100111 (
b111 "
10
15
1&
#1040
b1101000 (
b1000 "
00
0/
0.
1-
1>
1;
0<
18
09
05
0&
1%
0$
1=
0#
1@
02
1'
1$
0=
03
1#
0@
0'
#1050
b1101001 (
b1001 "
10
15
1&
#1060
b1101010 (
b1010 "
00
1/
08
19
05
0&
0%
12
0$
1=
13
0#
1@
1'
#1070
b1101011 (
b1011 "
10
15
1&
#1080
b1101100 (
b1100 "
00
0/
1.
0;
1<
18
09
05
0&
1%
1$
0=
02
0$
#1090
b1101101 (
b1101 "
10
15
1&
#1100
b1101110 (
b1110 "
00
1/
08
19
05
0&
0%
12
1$
#1110
b1101111 (
b1111 "
10
15
1&
#1120
b1110000 (
b0 "
b111 !
1,
00
0/
0.
0-
0>
1;
0<
18
09
1%
0$
1=
1#
0@
02
0'
1$
0=
03
0#
#1130
b1110001 (
b1 "
10
05
16
0&
11
0%
1:
12
0$
1=
13
1#
#1140
b1110010 (
b10 "
00
1/
08
19
15
06
1&
1%
0:
01
0%
#1150
b1110011 (
b11 "
10
05
16
0&
11
1%
#1160
b1110100 (
b100 "
00
0/
1.
0;
1<
18
09
15
06
1&
0%
1:
1$
0=
01
1%
0:
02
0$
#1170
b1110101 (
b101 "
10
05
16
0&
11
0%
1:
12
1$
#1180
b1110110 (
b110 "
00
1/
08
19
15
06
1&
1%
0:
01
0%
#1190
b1110111 (
b111 "
10
05
16
0&
11
1%
#1200
b1111000 (
b1000 "
00
0/
0.
1-
1>
1;
0<
18
09
15
06
1&
0%
1:
0$
1=
0#
1@
01
1'
1%
0:
02
1$
0=
03
1#
0@
0'
#1210
b1111001 (
b1001 "
10
05
16
0&
11
0%
1:
12
0$
1=
13
0#
1@
1'
#1220
b1111010 (
b1010 "
00
1/
08
19
15
06
1&
1%
0:
01
0%
#1230
b1111011 (
b1011 "
10
05
16
0&
11
1%
#1240
b1111100 (
b1100 "
00
0/
1.
0;
1<
18
09
15
06
1&
0%
1:
1$
0=
01
1%
0:
02
0$
#1250
b1111101 (
b1101 "
10
05
16
0&
11
0%
1:
12
1$
#1260
b1111110 (
b1110 "
00
1/
08
19
15
06
1&
1%
0:
01
0%
#1270
b1111111 (
b1111 "
10
05
16
0&
11
1%
#1280
b10000000 (
b0 "
b1000 !
0,
0+
0*
1)
00
0/
0.
0-
0<
09
06
03
02
01
0%
0$
1#
0@
0'
#1290
b10000001 (
b1 "
10
15
1&
#1300
b10000010 (
b10 "
00
1/
18
05
0&
1%
#1310
b10000011 (
b11 "
10
15
1&
#1320
b10000100 (
b100 "
00
0/
1.
1;
08
05
0&
0%
1$
#1330
b10000101 (
b101 "
10
15
1&
#1340
b10000110 (
b110 "
00
1/
18
05
0&
1%
#1350
b10000111 (
b111 "
10
15
1&
#1360
b10001000 (
b1000 "
00
0/
0.
1-
0>
1?
0;
08
05
0&
0%
0$
0#
1'
#1370
b10001001 (
b1001 "
10
15
1&
#1380
b10001010 (
b1010 "
00
1/
18
05
0&
1%
#1390
b10001011 (
b1011 "
10
15
1&
#1400
b10001100 (
b1100 "
00
0/
1.
1;
08
05
0&
0%
1$
#1410
b10001101 (
b1101 "
10
15
1&
#1420
b10001110 (
b1110 "
00
1/
18
05
0&
1%
#1430
b10001111 (
b1111 "
10
15
1&
#1440
b10010000 (
b0 "
b1001 !
1,
00
0/
0.
0-
1>
0?
0;
08
0%
0$
1#
0'
#1450
b10010001 (
b1 "
10
05
16
0&
11
1%
#1460
b10010010 (
b10 "
00
1/
18
15
06
1&
0%
1:
01
12
1$
1%
0:
02
0$
#1470
b10010011 (
b11 "
10
05
16
0&
11
0%
1:
12
1$
#1480
b10010100 (
b100 "
00
0/
1.
1;
08
15
06
1&
1%
0:
0$
1=
01
02
13
0#
1@
1$
0=
0%
1'
03
1#
0@
0'
#1490
b10010101 (
b101 "
10
05
16
0&
11
1%
#1500
b10010110 (
b110 "
00
1/
18
15
06
1&
0%
1:
01
12
0$
1=
1%
0:
13
02
1$
0=
0#
1@
03
1'
1#
0@
0'
#1510
b10010111 (
b111 "
10
05
16
0&
11
0%
1:
12
0$
1=
13
0#
1@
1'
#1520
b10011000 (
b1000 "
00
0/
0.
1-
0>
1?
0;
08
15
06
1&
1%
0:
1$
0=
1#
0@
01
02
03
0#
0$
0%
#1530
b10011001 (
b1001 "
10
05
16
0&
11
1%
#1540
b10011010 (
b1010 "
00
1/
18
15
06
1&
0%
1:
01
12
1$
1%
0:
02
0$
#1550
b10011011 (
b1011 "
10
05
16
0&
11
0%
1:
12
1$
#1560
b10011100 (
b1100 "
00
0/
1.
1;
08
15
06
1&
1%
0:
0$
1=
01
02
13
1#
1$
0=
0%
03
0#
#1570
b10011101 (
b1101 "
10
05
16
0&
11
1%
#1580
b10011110 (
b1110 "
00
1/
18
15
06
1&
0%
1:
01
12
0$
1=
1%
0:
13
02
1$
0=
1#
03
0#
#1590
b10011111 (
b1111 "
10
05
16
0&
11
0%
1:
12
0$
1=
13
1#
#1600
b10100000 (
b0 "
b1010 !
0,
1+
00
0/
0.
0-
1>
0?
0;
06
1$
0=
0#
1@
01
03
1#
0@
1%
0:
0'
02
0$
#1610
b10100001 (
b1 "
10
15
1&
#1620
b10100010 (
b10 "
00
1/
08
19
05
0&
0%
12
1$
#1630
b10100011 (
b11 "
10
15
1&
#1640
b10100100 (
b100 "
00
0/
1.
1;
18
09
05
0&
1%
0$
1=
02
13
0#
1@
1$
0=
1'
03
1#
0@
0'
#1650
b10100101 (
b101 "
10
15
1&
#1660
b10100110 (
b110 "
00
1/
08
19
05
0&
0%
12
0$
1=
13
0#
1@
1'
#1670
b10100111 (
b111 "
10
15
1&
#1680
b10101000 (
b1000 "
00
0/
0.
1-
0>
1?
0;
18
09
05
0&
1%
1$
0=
1#
0@
02
03
0#
0$
#1690
b10101001 (
b1001 "
10
15
1&
#1700
b10101010 (
b1010 "
00
1/
08
19
05
0&
0%
12
1$
#1710
b10101011 (
b1011 "
10
15
1&
#1720
b10101100 (
b1100 "
00
0/
1.
1;
18
09
05
0&
1%
0$
1=
02
13
1#
1$
0=
03
0#
#1730
b10101101 (
b1101 "
10
15
1&
#1740
b10101110 (
b1110 "
00
1/
08
19
05
0&
0%
12
0$
1=
13
1#
#1750
b10101111 (
b1111 "
10
15
1&
#1760
b10110000 (
b0 "
b1011 !
1,
00
0/
0.
0-
1>
0?
0;
18
09
1%
1$
0=
0#
1@
02
03
1#
0@
0$
0'
#1770
b10110001 (
b1 "
10
05
16
0&
11
0%
1:
12
1$
#1780
b10110010 (
b10 "
00
1/
08
19
15
06
1&
1%
0:
01
0%
#1790
b10110011 (
b11 "
10
05
16
0&
11
1%
#1800
b10110100 (
b100 "
00
0/
1.
1;
18
09
15
06
1&
0%
1:
0$
1=
01
13
0#
1@
1%
0:
1'
02
1$
0=
03
1#
0@
0'
#1810
b10110101 (
b101 "
10
05
16
0&
11
0%
1:
12
0$
1=
13
0#
1@
1'
#1820
b10110110 (
b110 "
00
1/
08
19
15
06
1&
1%
0:
01
0%
#1830
b10110111 (
b111 "
10
05
16
0&
11
1%
#1840
b10111000 (
b1000 "
00
0/
0.
1-
0>
1?
0;
18
09
15
06
1&
0%
1:
1$
0=
1#
0@
01
03
0#
1%
0:
02
0$
#1850
b10111001 (
b1001 "
10
05
16
0&
11
0%
1:
12
1$
#1860
b10111010 (
b1010 "
00
1/
08
19
15
06
1&
1%
0:
01
0%
#1870
b10111011 (
b1011 "
10
05
16
0&
11
1%
#1880
b10111100 (
b1100 "
00
0/
1.
1;
18
09
15
06
1&
0%
1:
0$
1=
01
13
1#
1%
0:
02
1$
0=
03
0#
#1890
b10111101 (
b1101 "
10
05
16
0&
11
0%
1:
12
0$
1=
13
1#
#1900
b10111110 (
b1110 "
00
1/
08
19
15
06
1&
1%
0:
01
0%
#1910
b10111111 (
b1111 "
10
05
16
0&
11
1%
#1920
b11000000 (
b0 "
b1100 !
0,
0+
1*
00
0/
0.
0-
1>
0?
09
06
0#
1@
02
01
0%
1$
0=
03
1#
0@
0'
#1930
b11000001 (
b1 "
10
15
1&
#1940
b11000010 (
b10 "
00
1/
18
05
0&
1%
#1950
b11000011 (
b11 "
10
15
1&
#1960
b11000100 (
b100 "
00
0/
1.
0;
1<
08
05
0&
0%
0$
13
0#
1@
1'
#1970
b11000101 (
b101 "
10
15
1&
#1980
b11000110 (
b110 "
00
1/
18
05
0&
1%
#1990
b11000111 (
b111 "
10
15
1&
#2000
b11001000 (
b1000 "
00
0/
0.
1-
0>
1?
1;
0<
08
05
0&
0%
1$
1#
0@
03
0#
#2010
b11001001 (
b1001 "
10
15
1&
#2020
b11001010 (
b1010 "
00
1/
18
05
0&
1%
#2030
b11001011 (
b1011 "
10
15
1&
#2040
b11001100 (
b1100 "
00
0/
1.
0;
1<
08
05
0&
0%
0$
13
1#
#2050
b11001101 (
b1101 "
10
15
1&
#2060
b11001110 (
b1110 "
00
1/
18
05
0&
1%
#2070
b11001111 (
b1111 "
10
15
1&
#2080
b11010000 (
b0 "
b1101 !
1,
00
0/
0.
0-
1>
0?
1;
0<
08
0%
1$
0#
1@
03
1#
0@
0'
#2090
b11010001 (
b1 "
10
05
16
0&
11
1%
#2100
b11010010 (
b10 "
00
1/
18
15
06
1&
0%
1:
01
12
0$
1=
1%
0:
13
02
1$
0=
0#
1@
03
1'
1#
0@
0'
#2110
b11010011 (
b11 "
10
05
16
0&
11
0%
1:
12
0$
1=
13
0#
1@
1'
#2120
b11010100 (
b100 "
00
0/
1.
0;
1<
08
15
06
1&
1%
0:
1$
0=
01
02
0$
0%
#2130
b11010101 (
b101 "
10
05
16
0&
11
1%
#2140
b11010110 (
b110 "
00
1/
18
15
06
1&
0%
1:
01
12
1$
1%
0:
02
0$
#2150
b11010111 (
b111 "
10
05
16
0&
11
0%
1:
12
1$
#2160
b11011000 (
b1000 "
00
0/
0.
1-
0>
1?
1;
0<
08
15
06
1&
1%
0:
0$
1=
1#
0@
01
02
1$
0=
0%
03
0#
#2170
b11011001 (
b1001 "
10
05
16
0&
11
1%
#2180
b11011010 (
b1010 "
00
1/
18
15
06
1&
0%
1:
01
12
0$
1=
1%
0:
13
02
1$
0=
1#
03
0#
#2190
b11011011 (
b1011 "
10
05
16
0&
11
0%
1:
12
0$
1=
13
1#
#2200
b11011100 (
b1100 "
00
0/
1.
0;
1<
08
15
06
1&
1%
0:
1$
0=
01
02
0$
0%
#2210
b11011101 (
b1101 "
10
05
16
0&
11
1%
#2220
b11011110 (
b1110 "
00
1/
18
15
06
1&
0%
1:
01
12
1$
1%
0:
02
0$
#2230
b11011111 (
b1111 "
10
05
16
0&
11
0%
1:
12
1$
#2240
b11100000 (
b0 "
b1110 !
0,
1+
00
0/
0.
0-
1>
0?
1;
0<
06
0$
1=
0#
1@
01
1%
0:
02
1$
0=
03
1#
0@
0'
#2250
b11100001 (
b1 "
10
15
1&
#2260
b11100010 (
b10 "
00
1/
08
19
05
0&
0%
12
0$
1=
13
0#
1@
1'
#2270
b11100011 (
b11 "
10
15
1&
#2280
b11100100 (
b100 "
00
0/
1.
0;
1<
18
09
05
0&
1%
1$
0=
02
0$
#2290
b11100101 (
b101 "
10
15
1&
#2300
b11100110 (
b110 "
00
1/
08
19
05
0&
0%
12
1$
#2310
b11100111 (
b111 "
10
15
1&
#2320
b11101000 (
b1000 "
00
0/
0.
1-
0>
1?
1;
0<
18
09
05
0&
1%
0$
1=
1#
0@
02
1$
0=
03
0#
#2330
b11101001 (
b1001 "
10
15
1&
#2340
b11101010 (
b1010 "
00
1/
08
19
05
0&
0%
12
0$
1=
13
1#
#2350
b11101011 (
b1011 "
10
15
1&
#2360
b11101100 (
b1100 "
00
0/
1.
0;
1<
18
09
05
0&
1%
1$
0=
02
0$
#2370
b11101101 (
b1101 "
10
15
1&
#2380
b11101110 (
b1110 "
00
1/
08
19
05
0&
0%
12
1$
#2390
b11101111 (
b1111 "
10
15
1&
#2400
b11110000 (
b0 "
b1111 !
1,
00
0/
0.
0-
1>
0?
1;
0<
18
09
1%
0$
1=
0#
1@
02
1$
0=
03
1#
0@
0'
#2410
b11110001 (
b1 "
10
05
16
0&
11
0%
1:
12
0$
1=
13
0#
1@
1'
#2420
b11110010 (
b10 "
00
1/
08
19
15
06
1&
1%
0:
01
0%
#2430
b11110011 (
b11 "
10
05
16
0&
11
1%
#2440
b11110100 (
b100 "
00
0/
1.
0;
1<
18
09
15
06
1&
0%
1:
1$
0=
01
1%
0:
02
0$
#2450
b11110101 (
b101 "
10
05
16
0&
11
0%
1:
12
1$
#2460
b11110110 (
b110 "
00
1/
08
19
15
06
1&
1%
0:
01
0%
#2470
b11110111 (
b111 "
10
05
16
0&
11
1%
#2480
b11111000 (
b1000 "
00
0/
0.
1-
0>
1?
1;
0<
18
09
15
06
1&
0%
1:
0$
1=
1#
0@
01
1%
0:
02
1$
0=
03
0#
#2490
b11111001 (
b1001 "
10
05
16
0&
11
0%
1:
12
0$
1=
13
1#
#2500
b11111010 (
b1010 "
00
1/
08
19
15
06
1&
1%
0:
01
0%
#2510
b11111011 (
b1011 "
10
05
16
0&
11
1%
#2520
b11111100 (
b1100 "
00
0/
1.
0;
1<
18
09
15
06
1&
0%
1:
1$
0=
01
1%
0:
02
0$
#2530
b11111101 (
b1101 "
10
05
16
0&
11
0%
1:
12
1$
#2540
b11111110 (
b1110 "
00
1/
08
19
15
06
1&
1%
0:
01
0%
#2550
b11111111 (
b1111 "
10
05
16
0&
11
1%
#2560
b100000000 (
